{
  "object": "list",
  "status": "ok",
  "message": "success",
  "data": [
    {
      "id": 1,
      "name": "Fuild Bed Dryer Task",
      "code": "CHK-JUN10-1",
      "properties": {
        "PRODUCT MANUFACTURED": "ZYD/SOP/001",
        "BATCH NUMBER": "GROUP",
        "ROOM ID": "ZYD/SOP/CLN/001"
      }
    },
    {
      "id": 2,
      "name": "Fuild Bed Dryer Task",
      "code": "CHK-JUN11-1",
      "properties": {
        "PRODUCT MANUFACTURED": "ZYD/SOP/001",
        "BATCH NUMBER": "GROUP"
      }
    },
    {
      "id": 3,
      "name": "Fuild Bed Dryer Task",
      "code": "CHK-JUN11-1",
      "properties": {
        "PRODUCT MANUFACTURED": "ZYD/SOP/001",
        "BATCH NUMBER": "GROUP",
        "ROOM ID": "ZYD/SOP/CLN/001"
      }
    },
    {
      "id": 4,
      "name": "Fuild Bed Dryer Task",
      "code": "CHK-JUN11-1",
      "properties": {
        "PRODUCT MANUFACTURED": "ZYD/SOP/001",
        "BATCH NUMBER": "GROUP",
        "ROOM ID": "ZYD/SOP/CLN/001"
      }
    },
    {
      "id": 5,
      "name": "Fuild Bed Dryer Task",
      "code": "CHK-JUN11-1",
      "properties": {
        "PRODUCT MANUFACTURED": "ZYD/SOP/001",
        "BATCH NUMBER": "GROUP",
        "ROOM ID": "ZYD/SOP/CLN/001"
      }
    },
    {
      "id": 6,
      "name": "Fuild Bed Dryer Task",
      "code": "CHK-JUN11-1",
      "properties": {
        "PRODUCT MANUFACTURED": "ZYD/SOP/001",
        "BATCH NUMBER": "GROUP",
        "ROOM ID": "ZYD/SOP/CLN/001"
      }
    },
    {
      "id": 7,
      "name": "Fuild Bed Dryer Task",
      "code": "CHK-JUN11-1",
      "properties": {
        "PRODUCT MANUFACTURED": "ZYD/SOP/001",
        "BATCH NUMBER": "GROUP",
        "ROOM ID": "ZYD/SOP/CLN/001"
      }
    },
    {
      "id": 8,
      "name": "Fuild Bed Dryer Task",
      "code": "CHK-JUN11-1",
      "properties": {
        "PRODUCT MANUFACTURED": "ZYD/SOP/001",
        "BATCH NUMBER": "GROUP",
        "ROOM ID": "ZYD/SOP/CLN/001"
      }
    },
    {
      "id": 9,
      "name": "Fuild Bed Dryer Task",
      "code": "CHK-JUN11-1",
      "properties": {
        "PRODUCT MANUFACTURED": "ZYD/SOP/001",
        "BATCH NUMBER": "GROUP",
        "ROOM ID": "ZYD/SOP/CLN/001"
      }
    },
    {
      "id": 10,
      "name": "Fuild Bed Dryer Task",
      "code": "CHK-JUN11-1",
      "properties": {
        "PRODUCT MANUFACTURED": "ZYD/SOP/001",
        "BATCH NUMBER": "GROUP",
        "ROOM ID": "ZYD/SOP/CLN/001"
      }
    },
    {
      "id": 11,
      "name": "Fuild Bed Dryer Task",
      "code": "CHK-JUN11-1",
      "properties": {
        "PRODUCT MANUFACTURED": "ZYD/SOP/001",
        "BATCH NUMBER": "GROUP",
        "ROOM ID": "ZYD/SOP/CLN/001"
      }
    },
    {
      "id": 12,
      "name": "Fuild Bed Dryer Task",
      "code": "CHK-JUN11-1",
      "properties": {
        "PRODUCT MANUFACTURED": "ZYD/SOP/001",
        "BATCH NUMBER": "GROUP",
        "ROOM ID": "ZYD/SOP/CLN/001"
      }
    },
    {
      "id": 13,
      "name": "Fuild Bed Dryer Task",
      "code": "CHK-JUN11-1",
      "properties": {
        "PRODUCT MANUFACTURED": "ZYD/SOP/001",
        "BATCH NUMBER": "GROUP",
        "ROOM ID": "ZYD/SOP/CLN/001"
      }
    },
    {
      "id": 14,
      "name": "Fuild Bed Dryer Task",
      "code": "CHK-JUN11-1",
      "properties": {
        "PRODUCT MANUFACTURED": "ZYD/SOP/001",
        "BATCH NUMBER": "GROUP",
        "ROOM ID": "ZYD/SOP/CLN/001"
      }
    },
    {
      "id": 15,
      "name": "Fuild Bed Dryer Task",
      "code": "CHK-JUN11-1",
      "properties": {
        "PRODUCT MANUFACTURED": "ZYD/SOP/001",
        "BATCH NUMBER": "GROUP",
        "ROOM ID": "ZYD/SOP/CLN/001"
      }
    },
    {
      "id": 16,
      "name": "Fuild Bed Dryer Task",
      "code": "CHK-JUN11-1",
      "properties": {
        "PRODUCT MANUFACTURED": "ZYD/SOP/001",
        "BATCH NUMBER": "GROUP",
        "ROOM ID": "ZYD/SOP/CLN/001"
      }
    },
    {
      "id": 17,
      "name": "Fuild Bed Dryer Task",
      "code": "CHK-JUN11-1",
      "properties": {
        "PRODUCT MANUFACTURED": "ZYD/SOP/001",
        "BATCH NUMBER": "GROUP",
        "ROOM ID": "ZYD/SOP/CLN/001"
      }
    },
    {
      "id": 18,
      "name": "Fuild Bed Dryer Task",
      "code": "CHK-JUN11-1",
      "properties": {
        "PRODUCT MANUFACTURED": "ZYD/SOP/001",
        "BATCH NUMBER": "GROUP",
        "ROOM ID": "ZYD/SOP/CLN/001"
      }
    },
    {
      "id": 19,
      "name": "Fuild Bed Dryer Task",
      "code": "CHK-JUN11-1",
      "properties": {
        "PRODUCT MANUFACTURED": "ZYD/SOP/001",
        "BATCH NUMBER": "GROUP",
        "ROOM ID": "ZYD/SOP/CLN/001"
      }
    },
    {
      "id": 20,
      "name": "Fuild Bed Dryer Task",
      "code": "CHK-JUN11-1",
      "properties": {
        "PRODUCT MANUFACTURED": "ZYD/SOP/001",
        "BATCH NUMBER": "GROUP",
        "ROOM ID": "ZYD/SOP/CLN/001"
      }
    }
  ],
  "pageable": {
    "page": 0,
    "pageSize": 20,
    "numberOfElements": 20,
    "totalPages": 2,
    "totalElements": 25,
    "first": true,
    "last": false,
    "empty": false
  },
  "errors": null
}
